<?xml version="1.0" encoding="UTF-8" standalone="no"?>
<!-- Created with Inkscape (http://www.inkscape.org/) -->

<svg
   xmlns:dc="http://purl.org/dc/elements/1.1/"
   xmlns:cc="http://creativecommons.org/ns#"
   xmlns:rdf="http://www.w3.org/1999/02/22-rdf-syntax-ns#"
   xmlns:svg="http://www.w3.org/2000/svg"
   xmlns="http://www.w3.org/2000/svg"
   xmlns:sodipodi="http://sodipodi.sourceforge.net/DTD/sodipodi-0.dtd"
   xmlns:inkscape="http://www.inkscape.org/namespaces/inkscape"
   id="svg4398"
   version="1.1"
   inkscape:version="0.91 r13725"
   width="25"
   height="41"
   viewBox="0 0 25 41"
   sodipodi:docname="marker-icon-alert.svg"
   inkscape:export-filename="/home/philtweir/Work/Flax and Teal/Sync/ORP/preto/ourragingplanet/public/images/leaflet/marker-icon-alert.png"
   inkscape:export-xdpi="89.975899"
   inkscape:export-ydpi="89.975899">
  <metadata
     id="metadata4404">
    <rdf:RDF>
      <cc:Work
         rdf:about="">
        <dc:format>image/svg+xml</dc:format>
        <dc:type
           rdf:resource="http://purl.org/dc/dcmitype/StillImage" />
        <dc:title></dc:title>
      </cc:Work>
    </rdf:RDF>
  </metadata>
  <defs
     id="defs4402" />
  <sodipodi:namedview
     pagecolor="#ffffff"
     bordercolor="#666666"
     borderopacity="1"
     objecttolerance="10"
     gridtolerance="10"
     guidetolerance="10"
     inkscape:pageopacity="0"
     inkscape:pageshadow="2"
     inkscape:window-width="1920"
     inkscape:window-height="1016"
     id="namedview4400"
     showgrid="false"
     inkscape:zoom="5.0365854"
     inkscape:cx="18.230268"
     inkscape:cy="18.769666"
     inkscape:window-x="0"
     inkscape:window-y="27"
     inkscape:window-maximized="1"
     inkscape:current-layer="svg4398" />
  <path
     style="fill:#fe1717;fill-opacity:1;stroke:#ffd0d0;stroke-opacity:1"
     d="M 5.7222329,8.5884959 4.6990043,16.633418 1.1691274,23.733028 7.4793271,27.197871 12.510055,40.664668 18.642454,26.922481 24.244935,24.012324 20.852767,16.82873 19.984679,8.7603709 12.83951,10.156855 5.7222329,8.5884959 Z m 7.3386581,5.6074221 a 5.8476617,6.5520582 0 0 1 5.848264,6.552735 5.8476617,6.5520582 0 0 1 -5.848264,6.55078 5.8476617,6.5520582 0 0 1 -5.8465225,-6.55078 5.8476617,6.5520582 0 0 1 5.8465225,-6.552735 z"
     id="path4224"
     inkscape:connector-curvature="0" />
</svg>
